Programowanie w R: Projekt - Karłowacenie śledzi
…
mamy następujące pary silnie skorelowanych parametrów: chel1 i
lcop1, chel2 i lcop2

Ostatni podpunkt sugeruje uproszczenie danych przez pozbycie się
kolumn - do usunięcia wybrane zostały lcop1 i
lcop2. Usuwane zostaną również kolumny recr i
totaln, które ze swojej definicji nie mają wpływu na
rozmiar śledzia. Usunięto również lp.

df <- df %>% select(c(-lcop1, lcop2, recr, totaln, lp))
df

## # A tibble: 52,582 × 15
## # Rowwise: 
##       lp length  cfin1 cfin2 chel1 chel2 lcop2  fbar   recr  cumf  totaln   sst
##    <int>  <dbl>  <dbl> <dbl> <dbl> <dbl> <dbl> <dbl>  <dbl> <dbl>   <dbl> <dbl>
##  1     0   23   0.0278 0.278  2.47  21.4  26.4 0.356 482831 0.306 267381.  14.3
##  2     1   22.5 0.0278 0.278  2.47  21.4  26.4 0.356 482831 0.306 267381.  14.3
##  3     2   25   0.0278 0.278  2.47  21.4  26.4 0.356 482831 0.306 267381.  14.3
##  4     3   25.5 0.0278 0.278  2.47  21.4  26.4 0.356 482831 0.306 267381.  14.3
##  5     4   24   0.0278 0.278  2.47  21.4  26.4 0.356 482831 0.306 267381.  14.3
##  6     5   22   0.0278 0.278  2.47  21.4  26.4 0.356 482831 0.306 267381.  14.3
##  7     6   24   0.0278 0.278  2.47  21.4  26.4 0.356 482831 0.306 267381.  14.3
##  8     7   23.5 0.0278 0.278  2.47  21.4  26.4 0.356 482831 0.306 267381.  14.3
##  9     8   22.5 0.0278 0.278  2.47  21.4  26.4 0.356 482831 0.306 267381.  14.3
## 10     9   22.5 0.0278 0.278  2.47  21.4  26.4 0.356 482831 0.306 267381.  14.3
## # … with 52,572 more rows, and 3 more variables: sal <dbl>, xmonth <int>,
## #   nao <dbl>
…
